Progetto Raschietto -- Tecnologie Web A.S 2014/15 -- Gruppo ltw1511
===================================================================

Tiziano Cianti          tiziano[dot]cianti[at]studio[dot]unibo[dot]it

Alessandro Cordella     alessandro[dot]cordella[at]studio[dot]unibo[dot]it

Vincenzo Rubano         vincenzo[dot]rubano[at]studio[dot]unibo[dot]it

Stefano Zaniboni        stefano[dot]zaniboni6[at]studio[dot]unibo[dot]it

===================
=Licenza GNU GPLv3=
===================
